{
  "realm": "BudgieRealm",
  "auth-server-url": "http://auth.abosshardt-dev.works/auth/",
  "ssl-required": "external",
  "resource": "react-front-web",
  "public-client": true,
  "confidential-port": 0,
  "enable-cors": false
}